{
  "type": "sqlite",
  "database": "database.sqlite",
  "synchronize": true,
  "logging": false,
  "entities": [
     "dist/**/**/*.entity{.js,.ts}"
  ],
  "cli": {
     "entitiesDir": "src/entity"
  }
}